<svg xmlns="http://www.w3.org/2000/svg" width="12.172" height="12.172" viewBox="0 0 12.172 12.172">
  <g id="remove-icon" transform="translate(-1200.535 -715.556)">
    <path id="Path_137" data-name="Path 137" d="M13939,399.763l-10.758,10.758" transform="translate(-12727 316.5)" fill="none" stroke="#e40e0e" stroke-width="2"/>
    <path id="Path_138" data-name="Path 138" d="M13939,399.763l-10.758,10.758" transform="translate(1611.763 -13211.979) rotate(90)" fill="none" stroke="#e40e0e" stroke-width="2"/>
  </g>
</svg>
